\relax 
\providecommand\hyper@newdestlabel[2]{}
\providecommand\HyperFirstAtBeginDocument{\AtBeginDocument}
\HyperFirstAtBeginDocument{\ifx\hyper@anchor\@undefined
\global\let\oldcontentsline\contentsline
\gdef\contentsline#1#2#3#4{\oldcontentsline{#1}{#2}{#3}}
\global\let\oldnewlabel\newlabel
\gdef\newlabel#1#2{\newlabelxx{#1}#2}
\gdef\newlabelxx#1#2#3#4#5#6{\oldnewlabel{#1}{{#2}{#3}}}
\AtEndDocument{\ifx\hyper@anchor\@undefined
\let\contentsline\oldcontentsline
\let\newlabel\oldnewlabel
\fi}
\fi}
\global\let\hyper@last\relax 
\gdef\HyperFirstAtBeginDocument#1{#1}
\providecommand\HyField@AuxAddToFields[1]{}
\providecommand\HyField@AuxAddToCoFields[2]{}
\providecommand \oddpage@label [2]{}
\citation{Corm_Intr_2009}
\@writefile{toc}{\contentsline {section}{\numberline {1}Sorting Algorithms}{2}{section.1}}
\newlabel{sorting-algorithms}{{1}{2}{Sorting Algorithms}{section.1}{}}
\@writefile{toc}{\contentsline {section}{\numberline {2}What happens inside each sorting algorithm?}{2}{section.2}}
\newlabel{what-happens-inside-each-sorting-algorithm}{{2}{2}{What happens inside each sorting algorithm?}{section.2}{}}
\gdef \LT@i {\LT@entry 
    {1}{87.18884pt}\LT@entry 
    {1}{12.0pt}\LT@entry 
    {1}{54.01964pt}\LT@entry 
    {1}{72.21942pt}\LT@entry 
    {1}{55.60968pt}}
\@writefile{toc}{\contentsline {section}{\numberline {3}Pseudo Code and Python Implemetation}{3}{section.3}}
\newlabel{pseudo-code-and-python-implemetation}{{3}{3}{Pseudo Code and Python Implemetation}{section.3}{}}
\@writefile{toc}{\contentsline {subsection}{\numberline {3.1}Peliminary work}{3}{subsection.3.1}}
\newlabel{peliminary-work}{{3.1}{3}{Peliminary work}{subsection.3.1}{}}
\@writefile{toc}{\contentsline {subsection}{\numberline {3.2}Insertion Sort}{4}{subsection.3.2}}
\newlabel{insertion-sort}{{3.2}{4}{Insertion Sort}{subsection.3.2}{}}
\@writefile{toc}{\contentsline {subsubsection}{\numberline {3.2.1}Pseudo code}{4}{subsubsection.3.2.1}}
\newlabel{pseudo-code}{{3.2.1}{4}{Pseudo code}{subsubsection.3.2.1}{}}
\@writefile{toc}{\contentsline {subsubsection}{\numberline {3.2.2}Python implementation}{4}{subsubsection.3.2.2}}
\newlabel{python-implementation}{{3.2.2}{4}{Python implementation}{subsubsection.3.2.2}{}}
\@writefile{toc}{\contentsline {subsubsection}{\numberline {3.2.3}Test for Correctness}{4}{subsubsection.3.2.3}}
\newlabel{test-for-correctness}{{3.2.3}{4}{Test for Correctness}{subsubsection.3.2.3}{}}
\@writefile{toc}{\contentsline {subsection}{\numberline {3.3}Merge Sort}{5}{subsection.3.3}}
\newlabel{merge-sort}{{3.3}{5}{Merge Sort}{subsection.3.3}{}}
\@writefile{toc}{\contentsline {subsubsection}{\numberline {3.3.1}Pseudo code}{5}{subsubsection.3.3.1}}
\newlabel{pseudo-code}{{3.3.1}{5}{Pseudo code}{subsubsection.3.3.1}{}}
\@writefile{toc}{\contentsline {subsubsection}{\numberline {3.3.2}Python Implementation}{5}{subsubsection.3.3.2}}
\newlabel{python-implementation}{{3.3.2}{5}{Python Implementation}{subsubsection.3.3.2}{}}
\citation{lutz2014python}
\citation{zelle2004python}
\@writefile{toc}{\contentsline {subsubsection}{\numberline {3.3.3}Test for Correctness}{6}{subsubsection.3.3.3}}
\newlabel{test-for-correctness}{{3.3.3}{6}{Test for Correctness}{subsubsection.3.3.3}{}}
\@writefile{toc}{\contentsline {subsubsection}{\numberline {3.3.4}Python Iterative Implementation}{6}{subsubsection.3.3.4}}
\newlabel{python-iterative-implementation}{{3.3.4}{6}{Python Iterative Implementation}{subsubsection.3.3.4}{}}
\@writefile{toc}{\contentsline {subsection}{\numberline {3.4}Quick Sort}{7}{subsection.3.4}}
\newlabel{quick-sort}{{3.4}{7}{Quick Sort}{subsection.3.4}{}}
\@writefile{toc}{\contentsline {subsubsection}{\numberline {3.4.1}Pseudo code}{7}{subsubsection.3.4.1}}
\newlabel{pseudo-code}{{3.4.1}{7}{Pseudo code}{subsubsection.3.4.1}{}}
\@writefile{toc}{\contentsline {subsubsection}{\numberline {3.4.2}Python implementation}{8}{subsubsection.3.4.2}}
\newlabel{python-implementation}{{3.4.2}{8}{Python implementation}{subsubsection.3.4.2}{}}
\@writefile{toc}{\contentsline {subsubsection}{\numberline {3.4.3}Test for Correctness}{8}{subsubsection.3.4.3}}
\newlabel{test-for-correctness}{{3.4.3}{8}{Test for Correctness}{subsubsection.3.4.3}{}}
\@writefile{toc}{\contentsline {subsubsection}{\numberline {3.4.4}Python Iterative Implementation}{8}{subsubsection.3.4.4}}
\newlabel{python-iterative-implementation}{{3.4.4}{8}{Python Iterative Implementation}{subsubsection.3.4.4}{}}
\@writefile{toc}{\contentsline {subsection}{\numberline {3.5}Heap sort}{9}{subsection.3.5}}
\newlabel{heap-sort}{{3.5}{9}{Heap sort}{subsection.3.5}{}}
\@writefile{toc}{\contentsline {subsubsection}{\numberline {3.5.1}Pseudo code}{9}{subsubsection.3.5.1}}
\newlabel{pseudo-code}{{3.5.1}{9}{Pseudo code}{subsubsection.3.5.1}{}}
\@writefile{toc}{\contentsline {subsubsection}{\numberline {3.5.2}Python implementation}{9}{subsubsection.3.5.2}}
\newlabel{python-implementation}{{3.5.2}{9}{Python implementation}{subsubsection.3.5.2}{}}
\@writefile{toc}{\contentsline {subsubsection}{\numberline {3.5.3}Test for Correctness}{10}{subsubsection.3.5.3}}
\newlabel{test-for-correctness}{{3.5.3}{10}{Test for Correctness}{subsubsection.3.5.3}{}}
\@writefile{toc}{\contentsline {subsubsection}{\numberline {3.5.4}Python Iterative Implementation}{10}{subsubsection.3.5.4}}
\newlabel{python-iterative-implementation}{{3.5.4}{10}{Python Iterative Implementation}{subsubsection.3.5.4}{}}
\@writefile{toc}{\contentsline {section}{\numberline {4}Benchmarking}{11}{section.4}}
\newlabel{benchmarking}{{4}{11}{Benchmarking}{section.4}{}}
\@writefile{toc}{\contentsline {subsection}{\numberline {4.1}Generating test data}{11}{subsection.4.1}}
\newlabel{generating-test-data}{{4.1}{11}{Generating test data}{subsection.4.1}{}}
\@writefile{toc}{\contentsline {subsection}{\numberline {4.2}Testing Environment}{13}{subsection.4.2}}
\newlabel{testing-environment}{{4.2}{13}{Testing Environment}{subsection.4.2}{}}
\@writefile{toc}{\contentsline {subsection}{\numberline {4.3}Perform benchmarking}{13}{subsection.4.3}}
\newlabel{perform-benchmarking}{{4.3}{13}{Perform benchmarking}{subsection.4.3}{}}
\gdef \LT@ii {\LT@entry 
    {1}{43.58127pt}\LT@entry 
    {1}{35.48918pt}\LT@entry 
    {1}{49.58127pt}\LT@entry 
    {1}{49.58127pt}\LT@entry 
    {1}{49.58127pt}\LT@entry 
    {1}{142.22581pt}}
\@writefile{toc}{\contentsline {section}{\numberline {5}Performance}{15}{section.5}}
\newlabel{performance}{{5}{15}{Performance}{section.5}{}}
\@writefile{toc}{\contentsline {subsection}{\numberline {5.1}Actual Performance Result vs Expected Result}{15}{subsection.5.1}}
\newlabel{actual-performance-result-vs-expected-result}{{5.1}{15}{Actual Performance Result vs Expected Result}{subsection.5.1}{}}
\@writefile{toc}{\contentsline {subsubsection}{\numberline {5.1.1}Insertion Sort}{16}{subsubsection.5.1.1}}
\newlabel{insertion-sort}{{5.1.1}{16}{Insertion Sort}{subsubsection.5.1.1}{}}
\@writefile{toc}{\contentsline {subsubsection}{\numberline {5.1.2}Merge Sort}{17}{subsubsection.5.1.2}}
\newlabel{merge-sort}{{5.1.2}{17}{Merge Sort}{subsubsection.5.1.2}{}}
\@writefile{toc}{\contentsline {subsubsection}{\numberline {5.1.3}Quick Sort}{17}{subsubsection.5.1.3}}
\newlabel{quick-sort}{{5.1.3}{17}{Quick Sort}{subsubsection.5.1.3}{}}
\@writefile{toc}{\contentsline {subsubsection}{\numberline {5.1.4}Heap Sort}{18}{subsubsection.5.1.4}}
\newlabel{heap-sort}{{5.1.4}{18}{Heap Sort}{subsubsection.5.1.4}{}}
\@writefile{toc}{\contentsline {subsubsection}{\numberline {5.1.5}Actual Result matches Expected Result}{19}{subsubsection.5.1.5}}
\newlabel{actual-result-matches-expected-result}{{5.1.5}{19}{Actual Result matches Expected Result}{subsubsection.5.1.5}{}}
\@writefile{toc}{\contentsline {subsection}{\numberline {5.2}Performance comparison between sorting algorithms}{19}{subsection.5.2}}
\newlabel{performance-comparison-between-sorting-algorithms}{{5.2}{19}{Performance comparison between sorting algorithms}{subsection.5.2}{}}
\citation{*}
\bibstyle{plainnat}
\bibdata{term_paper}
\bibcite{Corm_Intr_2009}{{1}{2009}{{Cormen et~al.}}{{Cormen, Leiserson, Rivest, and Stein}}}
\bibcite{lutz2014python}{{2}{2014}{{Lutz}}{{}}}
\bibcite{zelle2004python}{{3}{2004}{{Zelle}}{{}}}
\@writefile{toc}{\contentsline {section}{\numberline {6}Discussion}{22}{section.6}}
\newlabel{discussion}{{6}{22}{Discussion}{section.6}{}}
