\relax 
\providecommand\hyper@newdestlabel[2]{}
\providecommand\HyperFirstAtBeginDocument{\AtBeginDocument}
\HyperFirstAtBeginDocument{\ifx\hyper@anchor\@undefined
\global\let\oldcontentsline\contentsline
\gdef\contentsline#1#2#3#4{\oldcontentsline{#1}{#2}{#3}}
\global\let\oldnewlabel\newlabel
\gdef\newlabel#1#2{\newlabelxx{#1}#2}
\gdef\newlabelxx#1#2#3#4#5#6{\oldnewlabel{#1}{{#2}{#3}}}
\AtEndDocument{\ifx\hyper@anchor\@undefined
\let\contentsline\oldcontentsline
\let\newlabel\oldnewlabel
\fi}
\fi}
\global\let\hyper@last\relax 
\gdef\HyperFirstAtBeginDocument#1{#1}
\providecommand\HyField@AuxAddToFields[1]{}
\providecommand\HyField@AuxAddToCoFields[2]{}
\bibstyle{plainnat}
\bibdata{term_paper}
\providecommand \oddpage@label [2]{}
\@writefile{toc}{\contentsline {section}{\numberline {1}INF221 Term Paper}{1}{section.1}}
\newlabel{inf221-term-paper}{{1}{1}{INF221 Term Paper}{section.1}{}}
\@writefile{toc}{\contentsline {subsection}{\numberline {1.1}Theory}{1}{subsection.1.1}}
\newlabel{theory}{{1.1}{1}{Theory}{subsection.1.1}{}}
\@writefile{toc}{\contentsline {subsection}{\numberline {1.2}Method}{1}{subsection.1.2}}
\newlabel{method}{{1.2}{1}{Method}{subsection.1.2}{}}
\@writefile{toc}{\contentsline {subsection}{\numberline {1.3}Results}{1}{subsection.1.3}}
\newlabel{results}{{1.3}{1}{Results}{subsection.1.3}{}}
\@writefile{toc}{\contentsline {subsection}{\numberline {1.4}Discussion}{1}{subsection.1.4}}
\newlabel{discussion}{{1.4}{1}{Discussion}{subsection.1.4}{}}
